{
	"twitter":"https://twitter.com/",
    "google": "https://google.com",
	"gmail":"https://mail.google.com/",
    "github": "https://github.com",
	"fb": "https://www.facebook.com",
	"dotComTest":"http://www.telebrands.com",
	"dotOrgTest":"http://www.cancer.org "
}
